{
    "cognito": {
        "REGION": "us-east-1",
        "USER_POOL_ID": "us-east-1_ZU59dQiIX",
        "APP_CLIENT_ID": "3pcbd43ao1lhcgb4hrg3652f7m"
    },
    "backend": {
        "API": "54.210.98.171:5000"
    }
}